$GPRMC,014734.000,A,0.000,N,0.000,W,0.09,210.00,020821,,,A*4A
$GPRMC,014735.000,A,0.000,N,0.000,W,0.09,210.00,020821,,,A*4B
$GPRMC,014736.000,A,0.000,N,0.000,W,0.09,210.00,020821,,,A*48
$GPRMC,014737.000,A,0.000,N,0.000,W,0.09,210.00,020821,,,A*49
$GPRMC,014738.000,A,0.000,N,0.000,W,0.09,210.00,020821,,,A*46
$GPRMC,014738.000,A,0.000,N,0.000,W,0.09,210.00,020821,,,A*46
$GPRMC,014739.000,A,0.000,N,0.000,W,0.09,210.00,020821,,,A*47
$GPRMC,014740.000,A,0.000,N,0.000,W,0.09,210.00,020821,,,A*49
$GPRMC,014741.000,A,0.000,N,0.000,W,0.09,210.00,020821,,,A*48
$GPRMC,014742.000,A,0.000,N,0.000,W,0.09,210.00,020821,,,A*4B
$GPRMC,014743.000,A,0.000,N,0.000,W,0.09,210.00,020821,,,A*4A
